kalah\controller\GameController$PlayerSide.class
kalah\model\KalahBoard.class
kalah\model\Player.class
kalah\model\GameState.class
kalah\model\KalahBoard$BoardState.class
kalah\config\WebSocketConfig.class
kalah\controller\GameController.class
kalah\Main.class
